module oidc/m/v2

go 1.19

require (
	github.com/coreos/go-oidc/v3 v3.5.0
	golang.org/x/net v0.7.0
	golang.org/x/oauth2 v0.5.0
)

require (
	github.com/go-jose/go-jose/v3 v3.0.0 // indirect
	github.com/golang/protobuf v1.5.2 // indirect
	golang.org/x/crypto v0.0.0-20210921155107-089bfa567519 // indirect
	google.golang.org/appengine v1.6.7 // indirect
	google.golang.org/protobuf v1.28.0 // indirect
)
